{
  "posts": [
    {
      "data": [
        {
          "id": "19630c3f-a07c-48f4-ad67-d492eff4fa8d",
          "note": "second note",
          "date": "2021-06-23",
          "time": "14:19"
        },
        {
          "id": "001",
          "note": "first note",
          "date": "1996-02-19",
          "time": ""
        }
      ],
      "id": "1"
    }
  ]
}